<svg xmlns="http://www.w3.org/2000/svg" width="332" height="54.171" viewBox="0 0 332 54.171">
  <g id="footer_pulse_mob" transform="translate(-677 -5041.028)">
    <path id="footer_pulse" d="M6404,4808.7h49.986s.321-6.276,1.77-4.076,1.153,4.452,2.628,4.076c3.031-.054,6.812,0,6.812,0l.59,9.225s.858,8.581,1.716,0,.858-28.748.858-28.748.322-22.418,2.466-2.681c.046.41.286,4.637.555,9.537.343,6.219.732,13.525.732,13.525s2.146,48.485,3.754-.322c6.221-.053,18.879,0,18.879,0s2.628-15.232,4.076,3.165c.966,13.569,3.379-1.609,3.755-3.7.739-3.695,2.36-16.2,3.891-2.087.005.032.4,2.946.4,2.946h226.217" transform="translate(-5727 263.412)" fill="none" stroke="#e61515" stroke-width="1.5"/>
    <circle id="Ellipse_44" data-name="Ellipse 44" cx="2.621" cy="2.621" r="2.621" transform="translate(1003.758 5069.868)" fill="#e61515"/>
  </g>
</svg>
