<svg xmlns="http://www.w3.org/2000/svg" width="216" height="85.646" viewBox="0 0 216 85.646">
  <g id="pulse_4" transform="translate(-1441 -3651.024)">
    <path id="Path_215" data-name="Path 215" d="M6309.5,4827.7l115-.857s.371-10.028,2.041-6.514,1.331,7.114,3.031,6.514c3.5-.086,7.857,0,7.857,0l.681,14.742s.99,13.713,1.979,0,.99-45.939.99-45.939.372-35.826,2.846-4.285c.053.656.329,7.41.64,15.241.4,9.938.845,21.613.845,21.613s2.475,77.48,4.331-.515c7.176-.086,21.776,0,21.776,0s3.031-24.341,4.7,5.057c1.113,21.685,3.9-2.571,4.33-5.914.852-5.9,2.723-25.884,4.489-3.335.006.05.461,4.707.461,4.707h36.061" transform="translate(-4864.556 -1126.588)" fill="none" stroke="#e61515" stroke-width="1.5"/>
    <circle id="Ellipse_48" data-name="Ellipse 48" cx="2.124" cy="2.124" r="2.124" transform="translate(1441 3699.241)" fill="#e61515"/>
  </g>
</svg>
