<svg xmlns="http://www.w3.org/2000/svg" width="356" height="141.692" viewBox="0 0 356 141.692">
  <g id="pulse_2" transform="translate(-1460 -1838.264)">
    <path id="Path_213" data-name="Path 213" d="M6309.5,4859.672l189.53-1.413s.611-16.528,3.364-10.736,2.193,11.725,5,10.736c5.761-.142,12.95,0,12.95,0l1.122,24.3s1.631,22.6,3.262,0,1.632-75.715,1.632-75.715.612-59.046,4.69-7.063c.087,1.081.542,12.214,1.055,25.12.651,16.38,1.393,35.623,1.393,35.623s4.078,127.7,7.137-.848c11.827-.142,35.891,0,35.891,0s5-40.118,7.75,8.333c1.835,35.74,6.423-4.237,7.137-9.746,1.4-9.73,4.487-42.66,7.4-5.5.01.083.76,7.758.76,7.758H6659" transform="translate(-4843 -2938.588)" fill="none" stroke="#e61515" stroke-width="3"/>
    <circle id="Ellipse_46" data-name="Ellipse 46" cx="3.5" cy="3.5" r="3.5" transform="translate(1460 1918)" fill="#e61515"/>
  </g>
</svg>
