<svg xmlns="http://www.w3.org/2000/svg" width="570" height="92.419" viewBox="0 0 570 92.419">
  <g id="footer_pulse" transform="translate(-677 -5040.776)">
    <path id="footer_pulse-2" data-name="footer_pulse" d="M6404,4830.448h85.821s.552-10.774,3.039-7,1.98,7.643,4.512,7c5.2-.092,11.695,0,11.695,0l1.013,15.838s1.474,14.733,2.946,0,1.474-49.356,1.474-49.356.553-38.49,4.236-4.6c.079.7.49,7.962.953,16.375.588,10.678,1.257,23.221,1.257,23.221s3.683,83.243,6.446-.553c10.681-.092,32.413,0,32.413,0s4.512-26.151,7,5.433c1.657,23.3,5.8-2.762,6.445-6.354,1.269-6.343,4.052-27.809,6.681-3.583.009.054.686,5.057.686,5.057H6969" transform="translate(-5727 263.412)" fill="none" stroke="#e61515" stroke-width="2"/>
    <circle id="Ellipse_44" data-name="Ellipse 44" cx="4.5" cy="4.5" r="4.5" transform="translate(1238 5090)" fill="#e61515"/>
  </g>
</svg>
