<svg xmlns="http://www.w3.org/2000/svg" width="68.841" height="71.272" viewBox="0 0 68.841 71.272">
  <g id="Logo" transform="translate(-130.794 -104.402)">
    <path id="Path_150" data-name="Path 150" d="M165.274,115.034s5.626-10.009,16.586-10.009c11.142,0,16.3,6.863,17.158,15.442s-4,20.017-16.3,31.17S165.2,166.794,165.2,166.794s-15.936-13.44-19.082-16.872-22.877-20.589-11.152-38.606c0,0,6.291-8.293,16.872-6.005C161.271,107.313,164.416,113.318,165.274,115.034Z" transform="translate(0 0)" fill="#e50019" stroke="#cb001b" stroke-miterlimit="10" stroke-width="1"/>
    <path id="Path_151" data-name="Path 151" d="M203.417,199.779" transform="translate(-43.93 -57.77)" fill="none" stroke="#0fa0de" stroke-miterlimit="10" stroke-width="1"/>
    <path id="Path_152" data-name="Path 152" d="M158.774,113.221s-12.182.714-15.229,19.66C143.545,132.881,157.436,112.229,158.774,113.221Z" transform="translate(-7.47 -5.039)" fill="#e4515f" opacity="0.29"/>
    <g id="Group_77" data-name="Group 77" transform="translate(153.541 158.062)">
      <path id="Path_153" data-name="Path 153" d="M189.675,241.563s8.608,4.767,21.678-.733c0,0,2.232,2.2,0,3.667-2.476,1.627-13.39,5.134-22.316.367C189.037,244.864,187.124,242.663,189.675,241.563Z" transform="translate(-188.294 -240.83)" fill="#c1c1c0" stroke="#fff" stroke-miterlimit="10" stroke-width="1.642"/>
      <path id="Path_154" data-name="Path 154" d="M188.952,250.574s9.564,5.133,22.316-.367c0,0,1.864,3.553-.957,4.033-8.608,1.467-14.027,2.2-20.084.367C190.227,254.607,186.721,253.874,188.952,250.574Z" transform="translate(-188.209 -246.54)" fill="#c1c1c0" stroke="#fff" stroke-miterlimit="10" stroke-width="1.642"/>
      <path id="Path_155" data-name="Path 155" d="M191,262.08s6.755,2.76,21.722-.3a18.35,18.35,0,0,1-.665,6.5c-1,3.06-20.288,2.3-20.954,1.147S189.9,263.146,191,262.08Z" transform="translate(-189.527 -253.588)" fill="#c1c1c0" stroke="#fff" stroke-miterlimit="10" stroke-width="1.518"/>
    </g>
    <g id="Group_78" data-name="Group 78" transform="translate(148.877 116.41)">
      <path id="Path_156" data-name="Path 156" d="M179.652,151.15H190.36l2.02-7.71,3.637,15.419,2.829-24.544,3.65,29.245,3.624-26.137,1.818,13.915,11.652-.285" transform="translate(-178.335 -134.315)" fill="none" stroke="#fff" stroke-miterlimit="10" stroke-width="2"/>
      <circle id="Ellipse_38" data-name="Ellipse 38" cx="0.89" cy="0.89" r="0.89" transform="translate(0 15.843)" fill="#fff"/>
      <path id="Path_157" data-name="Path 157" d="M243.181,177.488s-2.683,18.384-24.22,21.325v4.743" transform="translate(-202.272 -160.606)" fill="none" stroke="#fff" stroke-miterlimit="10" stroke-width="2"/>
    </g>
  </g>
</svg>
