<svg xmlns="http://www.w3.org/2000/svg" width="395.339" height="133.256" viewBox="0 0 395.339 133.256">
  <g id="pulse_7" transform="translate(-1404.661 -840.264)">
    <path id="Path_213" data-name="Path 213" d="M6247.734,4853.4H6487.5s.574-15.522,3.159-10.083,2.06,11.011,4.692,10.083c5.411-.133,12.162,0,12.162,0l1.054,22.819s1.531,21.226,3.063,0,1.532-71.108,1.532-71.108.575-55.454,4.405-6.633c.081,1.015.509,11.471.99,23.591.611,15.383,1.308,33.455,1.308,33.455s3.83,119.928,6.7-.8c11.107-.133,33.707,0,33.707,0s4.693-37.677,7.278,7.827c1.724,33.565,6.032-3.979,6.7-9.153,1.318-9.138,4.214-40.064,6.947-5.163.01.078.714,7.287.714,7.287h55.816" transform="translate(-4837.734 -3936.588)" fill="none" stroke="#e61515" stroke-width="3"/>
    <circle id="Ellipse_46" data-name="Ellipse 46" cx="3.287" cy="3.287" r="3.287" transform="translate(1404.661 913.241)" fill="#e61515"/>
  </g>
</svg>
